<?xml version="1.0" encoding="utf-8"?>
<!-- Generator: Adobe Illustrator 19.0.0, SVG Export Plug-In . SVG Version: 6.00 Build 0)  -->
<svg version="1.1" id="Layer_1" xmlns="http://www.w3.org/2000/svg" xmlns:xlink="http://www.w3.org/1999/xlink" x="0px" y="0px"
	 viewBox="-299 151 200 200" style="enable-background:new -299 151 200 200;" xml:space="preserve">
<style type="text/css">
	.st0{fill:#FFFFFF;}
	.st1{fill:#FD5849;}
	.st2{fill:none;}
	.st3{fill:#FFEDC0;}
</style>
<g>
	<path class="st0" d="M-199,262.7c9.3,0,14-4.2,16.4-8h-32.8C-213,258.4-208.3,262.7-199,262.7z"/>
	<path class="st1" d="M-199,266.6c14.5,0,19.8-9.2,21.5-13.2l1.1-2.7h-45.1l1.1,2.7C-218.8,257.4-213.5,266.6-199,266.6z
		 M-182.6,254.7c-2.4,3.8-7.1,8-16.4,8s-14-4.3-16.4-8H-182.6z"/>
	<g>
		<path class="st2" d="M-199,266.6c14.5,0,19.8-9.2,21.5-13.2l1.1-2.7h-45.1l1.1,2.7C-218.8,257.4-213.5,266.6-199,266.6z"/>
		<path class="st2" d="M-199,288.8c-28.2,0-53.1,14.8-60.9,36.2c4.8,4.1,27.6,21.8,60.9,21.8c33.4,0,56.1-17.7,60.9-21.8
			C-146,303.6-170.8,288.8-199,288.8z"/>
		<path class="st0" d="M-178.8,208.4C-178.7,208.4-178.7,208.4-178.8,208.4l0.2-0.1c0,0,0.1,0,0.1,0l1.6-1.8h-0.1L-178.8,208.4
			C-178.7,208.4-178.8,208.4-178.8,208.4z"/>
		<path class="st0" d="M-143.9,172.7l-0.2,1.6c0,0.2-0.9,5.4-3.8,12.1l-0.3,0.8l-4.5,1.6l2,3.4l-0.6,1c-2.9,4.8-6.3,8.7-10.1,11.5
			v7.7c0.2,0.3,0.4,0.7,0.6,1h4.8c3.6,0,6.6-3.3,6.6-7.3h4c-0.2,6.2-4.9,11.3-10.7,11.3h-2.7c2.4,5.5,3.7,11.5,3.7,17.6
			c0,24.3-19.7,44-43.9,44s-43.9-19.7-43.9-43.9c0-6.1,1.3-12.1,3.8-17.7h-4.1c-5.8,0-10.5-5-10.5-11.3h4c0,4,2.9,7.3,6.6,7.3h5.2
			v-9.7v-15.8c0-12,9.8-21.8,21.8-21.8h32.9c8.4,0,15.7,4.6,19.4,11.9c8.7-4.8,17.1-5.9,17.5-5.9l1.2-0.1
			c-15.4-10.5-33.9-16.7-53.9-16.7c-52.8,0-95.8,43-95.8,95.8c0,28.2,12.3,53.6,31.8,71.2c9-22.2,34.9-37.4,64-37.4s55,15.2,64,37.4
			c19.5-17.6,31.8-43,31.8-71.2C-103.2,218.7-119.3,190.1-143.9,172.7z"/>
		<path class="st0" d="M-229.7,206.5c-1.6,1.7-3,3.4-4.2,5.3v0.2c1.3-2,2.7-3.8,4.3-5.5H-229.7z"/>
		<path class="st0" d="M-199,151c-55.2,0-100,44.8-100,100s44.8,100,100,100s100-44.8,100-100S-143.8,151-199,151z M-133.6,326.3
			l-0.8,0.8c-0.6,0.5-9.8,9.1-25.7,15.8c-0.1,0.1-0.3,0.1-0.4,0.2c-0.5,0.2-1,0.4-1.5,0.6c-7.3,2.9-15,5-22.9,6.1c0,0-0.1,0-0.1,0
			c-1.1,0.2-2.2,0.3-3.2,0.4c0,0,0,0-0.1,0c-1.1,0.1-2.2,0.2-3.3,0.3c-0.2,0-0.3,0-0.5,0c-0.9,0.1-1.8,0.1-2.7,0.1
			c-0.3,0-0.6,0-0.8,0c-1.1,0-2.2,0.1-3.3,0.1s-2.2,0-3.3-0.1c-0.3,0-0.6,0-0.8,0c-0.9,0-1.8-0.1-2.7-0.1c-0.2,0-0.3,0-0.5,0
			c-1.1-0.1-2.2-0.2-3.3-0.3c0,0,0,0-0.1,0c-1.1-0.1-2.2-0.3-3.2-0.4c0,0-0.1,0-0.1,0c-8-1.1-15.7-3.2-22.9-6.1
			c-0.5-0.2-1-0.4-1.5-0.6c-0.1-0.1-0.3-0.1-0.4-0.2c-15.9-6.7-25.1-15.3-25.7-15.8l-0.8-0.8c-21.1-18.3-34.4-45.3-34.4-75.3
			c0-55,44.8-99.8,99.8-99.8S-99.2,196-99.2,251C-99.2,281-112.6,308-133.6,326.3z"/>
		<path class="st0" d="M-180.7,208.4C-180.7,208.4-180.7,208.5-180.7,208.4c0.2,0.1,0.5,0,0.7,0
			C-180.2,208.4-180.4,208.4-180.7,208.4z"/>
		<path class="st3" d="M-148.7,176.4c-3.4,0.7-9.3,2.4-14.9,6c-6.6,4.1-11.1,9.7-13.4,16.5c-0.4,1.2-0.7,2.4-1,3.6h1.8l10.1-11.6
			l1.5,1.3l1.5,1.3l-7.8,9h5.1c0.4-0.2,0.8-0.5,1.3-0.8c3.4-2.3,6.4-5.6,9-9.7l-3.2-5.5l7.4-2.6C-150,180.9-149.2,178.2-148.7,176.4
			z"/>
		<path class="st3" d="M-238.9,235c0,22,17.9,39.9,39.9,39.9s39.9-17.9,39.9-39.9c0-6.2-1.4-12.2-4.2-17.7h-71.5
			C-237.5,222.9-238.9,228.9-238.9,235z M-183.1,227.3c3.3,0,6,2.9,6,6.5c0,3.6-2.7,6.5-6,6.5c-3.3,0-6-2.9-6-6.5
			C-189.1,230.2-186.4,227.3-183.1,227.3z M-214.9,227.3c3.3,0,6,2.9,6,6.5c0,3.6-2.7,6.5-6,6.5s-6-2.9-6-6.5
			C-220.9,230.2-218.2,227.3-214.9,227.3z M-176.4,250.7l-1.1,2.7c-1.7,4-7,13.2-21.5,13.2s-19.8-9.2-21.4-13.2l-1.1-2.7H-176.4z"/>
		<path class="st3" d="M-233.9,212v1.3h68.5v-6.8h-11.5l-1.6,1.8c0,0-0.1,0-0.1,0l-0.1,0.1c0,0-0.1,0-0.1,0c0,0,0.1,0,0.1,0l1.7-1.9
			h-52.5C-231.2,208.2-232.6,210.1-233.9,212z M-180.7,208.4c0.3,0,0.5,0,0.7,0C-180.2,208.5-180.5,208.5-180.7,208.4
			C-180.7,208.5-180.7,208.4-180.7,208.4z"/>
		<path class="st3" d="M-233.9,206.5v5.3c1.3-1.9,2.7-3.7,4.2-5.3H-233.9z"/>
		<path class="st1" d="M-199,151.2c-55,0-99.8,44.8-99.8,99.8c0,30,13.4,57,34.4,75.3l0.8,0.8c0.6,0.5,9.8,9.1,25.7,15.8
			c0.1,0.1,0.3,0.1,0.4,0.2c0.5,0.2,1,0.4,1.5,0.6c7.3,2.9,15,5,22.9,6.1c0,0,0.1,0,0.1,0c1.1,0.2,2.2,0.3,3.2,0.4c0,0,0,0,0.1,0
			c1.1,0.1,2.2,0.2,3.3,0.3c0.2,0,0.3,0,0.5,0c0.9,0.1,1.8,0.1,2.7,0.1c0.3,0,0.6,0,0.8,0c1.1,0,2.2,0.1,3.3,0.1s2.2,0,3.3-0.1
			c0.3,0,0.6,0,0.8,0c0.9,0,1.8-0.1,2.7-0.1c0.2,0,0.3,0,0.5,0c1.1-0.1,2.2-0.2,3.3-0.3c0,0,0,0,0.1,0c1.1-0.1,2.2-0.3,3.2-0.4
			c0,0,0.1,0,0.1,0c8-1.1,15.7-3.2,22.9-6.1c0.5-0.2,1-0.4,1.5-0.6c0.1-0.1,0.3-0.1,0.4-0.2c15.9-6.7,25.1-15.3,25.7-15.8l0.8-0.8
			C-112.6,308-99.2,281-99.2,251C-99.2,196-144,151.2-199,151.2z M-199,346.8c-33.3,0-56.1-17.7-60.9-21.8
			c7.8-21.4,32.7-36.2,60.9-36.2s53,14.8,60.9,36.2C-142.9,329.1-165.6,346.8-199,346.8z M-135,322.2c-9-22.2-34.9-37.4-64-37.4
			s-55,15.2-64,37.4c-19.5-17.6-31.8-43-31.8-71.2c0-52.8,43-95.8,95.8-95.8c20,0,38.5,6.2,53.9,16.7l-1.2,0.1
			c-0.4,0-8.8,1-17.5,5.9c-3.7-7.3-11-11.9-19.4-11.9h-32.9c-12,0-21.8,9.8-21.8,21.8v15.8v9.7h-5.2c-3.7,0-6.6-3.3-6.6-7.3h-4
			c0,6.3,4.7,11.3,10.5,11.3h4.1c-2.5,5.6-3.8,11.6-3.8,17.7c0,24.2,19.7,43.9,43.9,43.9s43.9-19.7,43.9-44c0-6.1-1.3-12.1-3.7-17.6
			h2.7c5.8,0,10.5-5.1,10.7-11.3h-4c0,4-3,7.3-6.6,7.3h-4.8c-0.2-0.3-0.4-0.6-0.6-1v-7.7c3.8-2.8,7.2-6.6,10.1-11.5l0.6-1l-2-3.4
			l4.5-1.6l0.3-0.8c2.9-6.7,3.8-11.9,3.8-12.1l0.2-1.6c24.6,17.4,40.7,46,40.7,78.3C-103.2,279.2-115.5,304.6-135,322.2z
			 M-155.5,192c-2.6,4.1-5.6,7.4-9,9.7c-0.5,0.3-0.9,0.6-1.3,0.8h-5.1l7.8-9l-1.5-1.3l-1.5-1.3l-10.1,11.6h-1.8
			c0.3-1.2,0.6-2.4,1-3.6c2.3-6.8,6.8-12.4,13.4-16.5c5.6-3.6,11.5-5.3,14.9-6c-0.5,1.8-1.3,4.5-2.6,7.5l-7.4,2.6L-155.5,192z
			 M-177,206.5L-177,206.5h11.6v6.8h-68.5V212v-0.2v-5.3h4.2h0.1H-177z M-163.3,217.3c2.7,5.5,4.2,11.5,4.2,17.7
			c0,22-17.9,39.9-39.9,39.9s-39.9-17.9-39.9-39.9c0-6.1,1.4-12.1,4.1-17.7H-163.3z"/>
		<path class="st1" d="M-214.9,240.3c3.3,0,6-2.9,6-6.5c0-3.6-2.7-6.5-6-6.5c-3.3,0-6,2.9-6,6.5
			C-220.9,237.4-218.2,240.3-214.9,240.3z"/>
		<path class="st1" d="M-183.1,240.3c3.3,0,6-2.9,6-6.5c0-3.6-2.7-6.5-6-6.5c-3.3,0-6,2.9-6,6.5
			C-189.1,237.4-186.4,240.3-183.1,240.3z"/>
	</g>
	<path class="st3" d="M-199,346.8c33.4,0,56.1-17.7,60.9-21.8c-7.9-21.4-32.7-36.2-60.9-36.2s-53.1,14.8-60.9,36.2
		C-255.1,329.1-232.3,346.8-199,346.8z"/>
</g>
</svg>
