<?xml version="1.0" encoding="utf-8"?>
<!-- Generator: Adobe Illustrator 17.1.0, SVG Export Plug-In . SVG Version: 6.00 Build 0)  -->
<!DOCTYPE svg PUBLIC "-//W3C//DTD SVG 1.1//EN" "http://www.w3.org/Graphics/SVG/1.1/DTD/svg11.dtd">
<svg version="1.1" id="Layer_1" xmlns="http://www.w3.org/2000/svg" xmlns:xlink="http://www.w3.org/1999/xlink" x="0px" y="0px"
	 viewBox="0 0 200 200" enable-background="new 0 0 200 200" xml:space="preserve">
<g>
	<path fill="#FFEDC0" d="M143.768,89.85c7.525,0,9.94,4.2,9.94,8.47c0,8.435-9.66,8.435-9.66,8.435h-2.905h-17.85
		c-4.655,0-8.435-3.78-8.435-8.47c0-4.655,3.78-8.435,8.435-8.435h2.1C128.158,89.85,133.898,89.85,143.768,89.85z"/>
	<path fill="#FFEDC0" d="M141.143,106.86c3.885,0,8.61,1.575,8.61,8.89c0,7.875-7.84,7.875-7.84,7.875h-1.75h-17.92
		c-0.28,0-0.56,0-0.84-0.035c-4.27-0.455-7.595-4.025-7.595-8.4c0-4.655,3.78-8.435,8.435-8.435h1.05h17.85V106.86z"/>
	<path fill="#FFEDC0" d="M122.243,123.625h17.92c0,0,7.07,0,7.07,8.68c0,3.85-2.765,8.19-10.185,8.19h-4.865h-14.175v0.035
		c-0.105,0-0.21,0-0.315,0c-4.515-0.175-8.12-3.885-8.12-8.47c0-4.655,3.78-8.435,8.435-8.435h3.395v-0.035
		C121.683,123.625,121.963,123.625,122.243,123.625z"/>
	<path fill="#FFEDC0" d="M132.183,140.495c0,0,6.23,0.945,6.23,8.47c0,7.525-5.425,8.435-10.045,8.435c-4.305,0-9.275,0-14.35,0
		c-4.655,0-8.435-3.78-8.435-8.435s3.78-8.435,8.435-8.435h3.675c0.105,0,0.21,0,0.315,0v-0.035H132.183z"/>
	<path fill="#FFEDC0" d="M113.808,115.19c0,4.375,3.325,7.945,7.595,8.4v0.035h-3.395c-4.655,0-8.435,3.78-8.435,8.435
		c0,4.585,3.605,8.295,8.12,8.47h-3.675c-4.655,0-8.435,3.78-8.435,8.435s3.78,8.435,8.435,8.435c-14.665,0-29.82,0-29.82,0
		l-20.93-4.83V96.15l21.525-3.5c0,0,8.505-16.275,8.505-37.485c0-5.705,0-12.565,0-12.565h9.52c6.545,0,10.955,7.595,10.955,16.66
		c0,16.17-5.81,30.59-5.81,30.59h15.33c-4.655,0-8.435,3.78-8.435,8.435c0,4.69,3.78,8.47,8.435,8.47h-1.05
		C117.588,106.755,113.808,110.535,113.808,115.19z"/>
	<path fill="#FF5849" d="M128.368,159.15l-44.563-0.044l-22.287-5.142V96.15h3.5v55.028l19.38,4.472h43.97
		c5.969,0,8.295-1.875,8.295-6.686c0-5.952-4.549-6.709-4.744-6.74l0.526-3.459c2.669,0.405,7.718,3.057,7.718,10.199
		C140.164,159.15,131.286,159.15,128.368,159.15z"/>
	<path fill="#FF5849" d="M137.048,142.244v-3.5c6.219,0,8.436-3.326,8.436-6.439c0-6.851-5.103-6.93-5.32-6.93v-3.5
		c3.051,0,8.82,2.181,8.82,10.43C148.984,137.252,145.292,142.244,137.048,142.244z"/>
	<path fill="#FF5849" d="M141.914,125.375v-3.5c0.615-0.007,6.089-0.232,6.089-6.125c0-4.804-2.244-7.14-6.86-7.14v-3.5
		c6.583,0,10.36,3.878,10.36,10.64C151.503,123.364,145.231,125.375,141.914,125.375z"/>
	<polygon fill="#FF5849" points="63.268,154.32 44.543,154.32 44.543,94.4 63.268,94.4 63.268,97.9 48.043,97.9 48.043,150.82 
		63.268,150.82 	"/>
	<path fill="#FF5849" d="M118.008,142.28l-0.385-0.002c-5.496-0.214-9.801-4.703-9.801-10.22c0-5.616,4.57-10.184,10.186-10.184
		h3.394l0.28,3.5h-3.674c-3.686,0-6.686,2.998-6.686,6.684c0,3.503,2.635,6.378,6.067,6.698l0.619-0.012h19.04v3.5L118.008,142.28z"
		/>
	<path fill="#FF5849" d="M114.018,159.15c-5.616,0-10.186-4.57-10.186-10.186s4.57-10.184,10.186-10.184h3.674v3.5h-3.674
		c-3.686,0-6.686,2.998-6.686,6.684s2.999,6.686,6.686,6.686V159.15z"/>
	<path fill="#FF5849" d="M75.658,127.265v-3.5c27.578,0,30.555-23.717,30.555-33.915l0.126-0.653
		c0.056-0.142,5.684-14.316,5.684-29.938c0-8.5-3.958-14.909-9.206-14.909h-7.769v10.814c0,21.395-8.348,37.615-8.704,38.295
		l-0.407,0.776l-22.389,3.642l-0.561-3.456l20.631-3.355c1.624-3.437,7.93-17.951,7.93-35.902V40.85h11.269
		c7.244,0,12.706,7.914,12.706,18.409c0,15.186-4.93,28.641-5.812,30.924C109.592,113.41,96.88,127.265,75.658,127.265z"/>
	<path fill="#FF5849" d="M141.914,125.375h-19.67c-0.354,0-0.709-0.005-1.063-0.05c-5.185-0.552-9.123-4.912-9.123-10.136
		c0-5.616,4.57-10.186,10.186-10.186h21.805c0.805-0.005,7.909-0.234,7.909-6.684c0-3.066-1.42-6.72-8.189-6.72h-18.375v-3.5h18.375
		c7.32,0,11.689,3.821,11.689,10.22c0,8.056-7.463,10.184-11.409,10.184h-21.805c-3.686,0-6.686,2.999-6.686,6.686
		c0,3.43,2.593,6.294,6.029,6.66c0.244,0.031,0.448,0.026,0.656,0.026h19.67V125.375z"/>
	<path fill="#FF5849" d="M123.293,108.504c-5.616,0-10.184-4.585-10.184-10.22c0-5.616,4.568-10.184,10.184-10.184v3.5
		c-3.686,0-6.684,2.998-6.684,6.684c0,3.705,2.998,6.72,6.684,6.72V108.504z"/>
	<rect x="107.963" y="88.1" fill="#FF5849" width="17.43" height="3.5"/>
</g>
</svg>
