<?xml version="1.0" encoding="utf-8"?>
<!-- Generator: Adobe Illustrator 17.1.0, SVG Export Plug-In . SVG Version: 6.00 Build 0)  -->
<!DOCTYPE svg PUBLIC "-//W3C//DTD SVG 1.1//EN" "http://www.w3.org/Graphics/SVG/1.1/DTD/svg11.dtd">
<svg version="1.1" id="Layer_1" xmlns="http://www.w3.org/2000/svg" xmlns:xlink="http://www.w3.org/1999/xlink" x="0px" y="0px"
	 viewBox="0 0 200 200" enable-background="new 0 0 200 200" xml:space="preserve">
<g>
	<path fill="#FFEDC0" d="M74.439,92.651c5.74-16.765,12.285-47.915,17.045-62.79c2.17-6.755,5.355-12.39,11.305-10.535
		c6.23,1.96,6.265,8.12,5.11,12.6c-1.295,5.04-12.39,50.715-12.39,50.715l28.7-49.49c2.45-4.235,6.72-7.595,12.18-4.48
		c5.39,3.15,4.725,8.75,2.345,12.845s-28.595,49.56-28.595,49.56l0.945,0.56c0,0,29.225-33.81,33.145-38.15
		c3.5-3.885,8.75-6.405,13.51-2.695c3.85,3.01,3.22,8.54-1.54,14.385c-4.76,5.845-28.42,36.085-28.42,36.085l1.295,0.77
		c0,0,28.595-23.625,33.39-27.65c4.83-4.025,10.99-4.025,14.28-0.175c3.255,3.85,1.26,9.31-2.87,12.95
		c-4.165,3.675-35.315,31.57-35.315,31.57l-19.425,31.255l-14.63,15.68l-51.87-29.96l2.835-85.225
		C66.459,49.636,78.954,62.411,74.439,92.651z"/>
	<path fill="#FF5849" d="M76.094,93.218l-3.312-1.135c3.133-9.146,6.484-22.524,9.726-35.46c2.649-10.567,5.149-20.545,7.309-27.296
		c1.148-3.57,4.638-14.432,13.492-11.672c5.838,1.837,8.184,7.335,6.284,14.708c-1.278,4.971-12.274,50.236-12.385,50.692
		l-3.401-0.827c0.111-0.456,11.112-45.743,12.395-50.738c0.825-3.198,1.41-8.812-3.939-10.493c-2.582-0.8-5.946-0.461-9.114,9.399
		c-2.124,6.641-4.613,16.569-7.246,27.077C82.644,70.48,79.274,83.929,76.094,93.218z"/>
	<path fill="#FF5849" d="M111.654,91.95l-3.032-1.747c0,0,26.218-45.471,28.598-49.567c0.962-1.654,3.681-7.299-1.716-10.454
		c-4.941-2.813-8.251,1.2-9.782,3.845L97.022,83.519l-3.028-1.757l28.701-49.49c3.606-6.226,9.186-8.189,14.561-5.12
		c6.535,3.818,5.693,10.596,2.991,15.244C137.865,46.489,111.654,91.95,111.654,91.95z"/>
	<path fill="#FF5849" d="M104.834,167.873l-53.985-31.18l2.922-87.842l1.564-0.12c4.983-0.385,9.827,1.671,13.648,5.778
		c4.086,4.39,10.401,15.025,7.354,37.23c1.907,1.188,6.024,4.04,9.709,8.514c5.858,7.19,10.91,19.083,1.74,34.957l-3.032-1.75
		c6.562-11.358,6.086-21.784-1.417-30.989c-4.426-5.376-9.676-8.253-9.729-8.282l-1.08-0.584l0.179-1.213
		c3.218-21.552-2.557-31.491-6.286-35.499c-2.669-2.868-5.908-4.496-9.259-4.688l-2.745,82.505l49.757,28.74l13.679-14.665
		l19.539-31.363c0,0,31.158-27.903,35.325-31.579c3.194-2.816,5.399-7.304,2.69-10.509c-2.688-3.146-7.774-2.986-11.821,0.391
		c-4.794,4.021-33.397,27.653-33.397,27.653l-0.95,0.786l-4.062-2.418l1.225-1.565c0.236-0.302,23.724-30.319,28.441-36.113
		c2.608-3.201,3.893-6.296,3.621-8.716c-0.145-1.292-0.752-2.364-1.803-3.184c-4.845-3.779-9.745,0.95-11.132,2.487
		c-3.862,4.279-32.828,37.786-33.12,38.124l-2.649-2.29c1.195-1.381,29.283-33.872,33.17-38.177
		c4.992-5.539,11.079-6.648,15.885-2.904c1.796,1.405,2.878,3.324,3.127,5.552c0.385,3.411-1.133,7.323-4.385,11.319
		c-3.209,3.939-15.184,19.194-22.521,28.554c8.794-7.27,23.046-19.059,26.305-21.793c5.561-4.642,12.752-4.631,16.734,0.027
		c3.572,4.226,2.29,10.7-3.044,15.4c-3.973,3.507-32.536,29.082-35.118,31.394l-19.293,31.042L104.834,167.873z"/>
	<polygon fill="#FF5849" points="96.679,182.789 41.738,151.077 51.117,134.826 54.149,136.576 46.52,149.795 95.39,178.004 
		102.986,164.79 106.022,166.533 	"/>
	
		<rect x="83.262" y="107.247" transform="matrix(0.932 0.3625 -0.3625 0.932 46.6025 -30.3978)" fill="#FF5849" width="42.098" height="3.499"/>
	
		<rect x="154.501" y="108.281" transform="matrix(0.7735 0.6338 -0.6338 0.7735 121.4049 -68.2962)" fill="#FF5849" width="3.5" height="54.84"/>
	
		<rect x="171.861" y="130.094" transform="matrix(0.7735 0.6338 -0.6338 0.7735 131.6041 -77.0596)" fill="#FF5849" width="3.5" height="30.989"/>
	
		<rect x="8.479" y="84.356" transform="matrix(0.0126 0.9999 -0.9999 0.0126 120.4601 50.2208)" fill="#FF5849" width="52.643" height="3.5"/>
	
		<rect x="2.807" y="84.355" transform="matrix(0.0229 0.9997 -0.9997 0.0229 102.987 66.8351)" fill="#FF5849" width="28.987" height="3.501"/>
</g>
</svg>
